<?xml version="1.0" encoding="UTF-8" standalone="no"?>
<!-- Created with Inkscape (http://www.inkscape.org/) -->

<svg
   width="1920"
   height="1080"
   viewBox="0 0 1920 1080"
   version="1.1"
   id="svg5"
   inkscape:version="1.1.1 (3bf5ae0d25, 2021-09-20, custom)"
   sodipodi:docname="ARCTIC_backronym.svg"
   inkscape:export-filename="/home/marius/projects/thesis/media/movie/movie_assets/title/ARCTIC_backronym.png"
   inkscape:export-xdpi="96"
   inkscape:export-ydpi="96"
   xmlns:inkscape="http://www.inkscape.org/namespaces/inkscape"
   xmlns:sodipodi="http://sodipodi.sourceforge.net/DTD/sodipodi-0.dtd"
   xmlns:xlink="http://www.w3.org/1999/xlink"
   xmlns="http://www.w3.org/2000/svg"
   xmlns:svg="http://www.w3.org/2000/svg">
  <sodipodi:namedview
     id="namedview7"
     pagecolor="#505050"
     bordercolor="#ffffff"
     borderopacity="1"
     inkscape:pageshadow="0"
     inkscape:pageopacity="0"
     inkscape:pagecheckerboard="1"
     inkscape:document-units="px"
     showgrid="false"
     inkscape:zoom="0.66574074"
     inkscape:cx="1354.1307"
     inkscape:cy="548.26148"
     inkscape:window-width="2536"
     inkscape:window-height="1376"
     inkscape:window-x="2565"
     inkscape:window-y="45"
     inkscape:window-maximized="1"
     inkscape:current-layer="layer1" />
  <defs
     id="defs2" />
  <g
     inkscape:label="Layer 1"
     inkscape:groupmode="layer"
     id="layer1">
    <text
       xml:space="preserve"
       style="font-size:192px;line-height:1.25;font-family:'Open Sans';-inkscape-font-specification:'Open Sans';letter-spacing:0px;word-spacing:0px"
       x="163.75784"
       y="180.92447"
       id="text2608"><tspan
         sodipodi:role="line"
         id="tspan2606"
         x="163.75784"
         y="180.92447" /></text>
    <text
       xml:space="preserve"
       style="font-size:192px;line-height:1.25;font-family:'Open Sans';-inkscape-font-specification:'Open Sans';letter-spacing:0px;word-spacing:0px"
       x="409.5741"
       y="216.16702"
       id="text7224"><tspan
         sodipodi:role="line"
         id="tspan7222" /></text>
    <text
       xml:space="preserve"
       style="font-size:96px;line-height:1.05;font-family:'Open Sans';-inkscape-font-specification:'Open Sans';letter-spacing:0px;word-spacing:0px"
       x="111.73783"
       y="248.92249"
       id="text13322"><tspan
         sodipodi:role="line"
         x="111.73783"
         y="248.92249"
         style="font-size:96px;fill:#ffffff;fill-opacity:1"
         id="tspan17134" /></text>
    <text
       xml:space="preserve"
       style="font-size:192px;line-height:1.25;font-family:'Open Sans';-inkscape-font-specification:'Open Sans';letter-spacing:0px;word-spacing:0px"
       x="1071.6835"
       y="860.73236"
       id="text38742"><tspan
         sodipodi:role="line"
         id="tspan38740" /></text>
    <text
       xml:space="preserve"
       style="font-size:96px;line-height:1.25;font-family:'Open Sans';-inkscape-font-specification:'Open Sans';letter-spacing:0px;word-spacing:0px"
       x="76.560188"
       y="158.89178"
       id="text51011"><tspan
         sodipodi:role="line"
         id="tspan51009"
         x="76.560188"
         y="158.89178"
         style="fill:#ffffff;fill-opacity:1"><tspan
   style="font-weight:bold;font-size:117.333px"
   id="tspan65965">A</tspan>utomatically</tspan></text>
    <text
       xml:space="preserve"
       style="font-size:96px;line-height:1.25;font-family:'Open Sans';-inkscape-font-specification:'Open Sans';letter-spacing:0px;word-spacing:0px"
       x="74.018555"
       y="333.29169"
       id="text51015"><tspan
         sodipodi:role="line"
         id="tspan51013"
         x="74.018555"
         y="333.29169"
         style="fill:#ffffff;fill-opacity:1"><tspan
   style="font-weight:bold;font-size:117.333px"
   id="tspan67133">R</tspan>eadable</tspan></text>
    <text
       xml:space="preserve"
       style="font-size:96px;line-height:1.25;font-family:'Open Sans';-inkscape-font-specification:'Open Sans';letter-spacing:0px;word-spacing:0px"
       x="69.7425"
       y="486.76968"
       id="text51437"><tspan
         sodipodi:role="line"
         id="tspan51435"
         x="69.7425"
         y="486.76968"
         style="fill:#ffffff;fill-opacity:1"><tspan
   style="font-weight:bold;font-size:117.333px"
   id="tspan68239">C</tspan>hain of</tspan></text>
    <text
       xml:space="preserve"
       style="font-size:96px;line-height:1.25;font-family:'Open Sans';-inkscape-font-specification:'Open Sans';letter-spacing:0px;word-spacing:0px"
       x="74.211235"
       y="639.25293"
       id="text52079"><tspan
         sodipodi:role="line"
         id="tspan52077"
         x="74.211235"
         y="639.25293"
         style="fill:#ffffff;fill-opacity:1"><tspan
   style="font-weight:bold;font-size:117.333px"
   id="tspan69297">T</tspan>rust based</tspan></text>
    <text
       xml:space="preserve"
       style="font-size:96px;line-height:1.25;font-family:'Open Sans';-inkscape-font-specification:'Open Sans';letter-spacing:0px;word-spacing:0px"
       x="86.018555"
       y="791.52783"
       id="text52347"><tspan
         sodipodi:role="line"
         id="tspan52345"
         x="86.018555"
         y="791.52783"
         style="fill:#ffffff;fill-opacity:1"><tspan
   style="font-weight:bold;font-size:117.333px"
   id="tspan71183">I</tspan>mmunization</tspan></text>
    <text
       xml:space="preserve"
       style="font-size:96px;line-height:1.25;font-family:'Open Sans';-inkscape-font-specification:'Open Sans';letter-spacing:0px;word-spacing:0px"
       x="69.7425"
       y="945.00586"
       id="text53209"><tspan
         sodipodi:role="line"
         id="tspan53207"
         x="69.7425"
         y="945.00586"
         style="fill:#ffffff;fill-opacity:1"><tspan
   style="font-weight:bold;font-size:117.333px"
   id="tspan73239">C</tspan>ertificate</tspan></text>
    <image
       width="528"
       height="528"
       preserveAspectRatio="none"
       xlink:href="data:image/png;base64,iVBORw0KGgoAAAANSUhEUgAAAYwAAAGMAQMAAADz9wcJAAA+unpUWHRSYXcgcHJvZmlsZSB0eXBl IGV4aWYAAHjazZ1pkh05kqT/4xR9BMcOHAebi/QN5vjzqeEFtySzKqdaRjpZxSCDL9zhgEFN1WBm 7s7/+e/X/dd//ZfP7Uku5dpKL+Xhv9RTD4M/tOf+N+x3/yT73f5r6/Mn//P33bd/CHyNfI2fHyj3 q//6/ucHvr76wZ/yzxe6/zB//oee7tfQfrnQ50ZRIwr8YX8u1D8XiuH+g/9cYNzHekpv9cdHmOd+ /fz8nQb+7/Rb6zYWXez+2y9/T5XZ25n7xBBO9PHh9xg/A4j6f3Bx8AfP7z52fZAPjJhite+Hz0iY kN/N07f/OiN6NdT02w/9tCrf/uR//33362ql8PlI/GWSy7evv/2+8/n3q2JT/8OdU/tmJj99v5y4 7oh+mX39/313e+2ZeYqRClNdPg/19Sj2Jz43uYVu3RxDK0/l/5lLVPvV+dWw6oUp7Gc9k1/Ldx9Y rtcnv/3wrz/2dfnFEFM4LlT+EMIK0b7ZYg09LFvJpF/+DTX2uGNjRZcte4rh21i83bY/y9ndGnfe no8Gz8W87OKf/nL/9AfeV3Pr/dO+zRXjCkGTzTC0cvqdj7Ei/v1MarYJ/vr1639a18gKZs2ytkhn Yue9xMz+OxJEW+jIBzNf7x70dX8uwBRx68xgfGQFWDUfsy/+qSFU75nIxgINhh5iCpMV8DmHzSBD irGwNi3o1vxI9fbRkAPfdnwfMGMlcizssMYKDRYrpYz91NSwoZFjTjnnkmtuuedRYkkll1JqESiO GmtyNddSa22119FiSy230mprrbfRQ4+AZu6l195672Nwz8GVBz89+MAYM8w408xulllnm32Ohfms tPIqq662+ho77LjBj1123W33PY4/mNJJJ59y6mmnn/Fiam90b3rzW976tre/49uqfZb1L7/+war5 z6oFWyl9sH5bNb5b69clvOAka81YsOCSZ8WrlgCDDlqzp/mUglZOa/Z0YV0ODDJrzbbXirGC6fiQ X/+1di7cFdXK/Ufr5mr6ad3C/+vKOS3dP1y5v67b71Ztyw0tW7G7CzWpT2T38e+njdCGnN1fvro/ /cM//frvX2gkbbJxeLTATNQ2Uh+15xVS9au4kXvf7frbA4eobWVzibmCji97l+9EHiqnXeMrgMk7 1vcFQesLzvYDAL8DLxLzwhp9TVsfWwlnzE/8b7xQmWXgK8rrn9NjGeWwgfZTc2K/QyxC7+WUdVID 66LbT4Fw+dwjmyl77PdsHAWWMzNzyX3HBqnLu7nzM8cee07MMfnT0uG6+CyfSnOyuDRX5COnTR/S HOO0d2Ddq4ZYdqpzTGhdi/5lk7Zn9bH2XUp8DzcNu0Tw6OWBZ6hpzAMEALen1N3D3ifv3heObCaW F8853uH5WU1ASz6uwhymMMrs79tcOH3aP3VuIptnPMwtEPH6Vt/9sJlOxX/PUfS5E8oMLygeqqAc qCv7ZSFcPOdwv5KeM/3ejBOAyav7/uA3Y1s4gcgn2hP69rYEbJW7BGOXEc60qXKswZo1pNF62YM1 6ECQ34AE3oZ5ZBH+LUNw3y3hP7Oo/78XSj0u3OjYK00Qh0eGfvDz4vexexY8RMd8hqdF5hTu00Y7 EK1hu/6HryzkeljkkJ93xazbFI/FAl8eI1vvroD/YaXfHlo9fugj88F8IWxtZyzineWAicEDpUV7 4rATjm8BdvUGDenJ4PkDrTHsEIi8ADtX6qdiSVyoTFmf5qLgLJiLnGp7maWkj3SMa3m8gT4xgutY dFg7vGnOvcvMwD+GEcc2dD41zhJbh4sykBg39NLbQJOZJwb+Ptxku2dXGCGWu0K4ljva3QQvM6w/ vRCMg5G/LT7t7oIx3p7vhbJnlAzOtTy1V+bbvT2Gxg/MjADd1N/3M+td7PqG+HWrJx7d7+tufNd9 3Y773Btyu1kHfm5ErGbwvOxhLALbSXvu2fbIcw1c2GQXzCeOvvCvrnr87ltsvdi0K4MQp1eALI9R Gnx25g7K1LXwkvtpec1HAHfq6Lgptu2Mb6luaek7DweFZ5KiLTmW0V6BCuh0WKZ5mMfDAoFwOPRQ gIQ3c4sh7MT91+nq0xp+vGFNgeVMeENcygGR4htBIMwrMlmrs82ZFfvO23e11ecmZqT8z70MNHWz BRiiMElriNm+bVdtrLqzptADWyvMzYUZcgMT9/u8R9DLxAP+CSTE180nFYB1whzGU4JvJz1r1xnt owXu4JkzDG1w+fKW/EQ+u0uaqMQQenGiqDFUFKZ/WQt/rQN+04JZdwcKbSFgJa/wLS4Ak5libn3B j+pxV+HR2OK7LibuwBL8y7phuWduHnGH4neIucJbDpMG2paaJ/Qm9szKi67gFrxQwk1Nmqa14DqC bBGD5Gl4jsaE9P2WwmIdZgrkLO+qffZVDgAMDL+LK3GJd6GO+rlbExfBbjAk8k1DXjnXBXeDC1Rm Uh7SM6bJ/Kx35MPqdIQAX1bpDqdUIHM5T9+Xh3O8AJStfOdOmMWFmKGN2eBqtm38DLtiVjPa/K3W Xjf4yIYnYn4pLyjifj2sDX0f8BQRI8Arv0wqE1bwEyVt5Hgo3XvFGA4oxCOv7vzumEbFX4A0GE2R NJrCHKaVUVR437uw7RKxhhWBHawoMMyFYeNZIQIdMHcArp9d8ZUA5rDoeOguQzidffIYWGinAOPa KeW1m+7FDJ3QZJPd85DFZTx/XpsJY1fBdd8wgFMWvSxoQsUFeCY9/QQZv0MMp33DnNok3t1rEhxo BQBOelN7W+XmhwfDjOWnQVPAVoymiCEssQ4wu+A7oLgVEuz922yty/5X2I29Xbth45nduChPZmbD MspwDJneZ7S5qgErdGADNkx5ez9AK5bxhbEfiHVaon6xmTuxdj/e7g9myhxOnGWstWwIx+aZvVv7 gUD4g3HE8jDjijxAaqok62ahnnfnaC6G1Qn9xcUk5gZedg4QUBJCo4XsknwMMNOGPMySawlan48/ fcb1p2lqtHjjZi7hJCDzujZItxDAga08ojnlWj9OOc0vpzzMKW85ZQW7xDF/+JrhRc3LYw7vMNNp 1+XLi9QqX5f9s6+3mXx/cbru43VHkMsFVG1CA3s4iaGcgyGMJwpwmcd1rY2VQPMJpLPBMYLrdXjM I+vA2ZT9yGNMQVR7tm7MFrUHefwxS/b6N7Ypn5LfuesaD1jhfHp3t0GOAg7MtgB5OACEhC1jy96D BzTAtn03SAUkDusHoGsAycYJQnoesQ/BJfR11X2Hz6DNurJ8DV+5qWcXe57qAcZXxE1xu8lNAxMz HT60gjA8ND8cENTLGG1kniJMoeIO/u7ibE5d0xe3i7lpcLygq3lK2AwQ0driiqcMKJGkOgoaB3XG Enhqfz1CERg2FzKC4/BeExcPIdcsb26G5n49NA2h58HgNFYSI8xTlwL2RU1xnq0gK+ZiGQRL3e0O a4XcQ+vwg8AR48hQzD5iBVjx31gQN2IZecyKUwdWKtQGmvu2JWGsh11u47J4rAkKH/b85NFwnDEc NtFq7NMSKkYmzBxM9u7Hp41Xylt+/cELPGPNs12F7YJ3Hcq8NijGI0rC3BkxT7R6z/KXjCG/rTGl ZulDFHLHto/4U3FVijb7WArkYr9zrRgR9/gfNNmWBYsz9LmCL5gybgB/K/nk+16rYqH459Wn6wgw CDviDFEGxJ+1bMuiwxQjHDLEonWCCfrwshAAEeIJafaKTTCHS34YvYYDX0O8CqjGplBxjbXBmLkA 42FTGiCcwPKyKjHFHR9AMz8Tf8gsspHLdrhbrCxGuNWlEVtyAW2PDriIdH8v1y0sjWRDLw/Yi+Bn 34D/zIljzWxS9o6bNWV9AWygZTJ8GC0qrOxaVmVpedgaZkhlylDhEkmB0p5wnae5h+nE2UsI4pFD NbI28aphib/yTHWg3ZKCS8BMCUwpFA9FJxr68mGWE3fo2CnQ01LHKhPWUmqVuAFTpH3Wx/+yhNf9 1jFxkgesg+jiLWqbc5XMTzm80gGTeJbcXvlDds/ZKKnaKpq7YZYRMr39hyEslg0C75k0ZhLhC3vO B7n+VjzKAZ1ZSKl8WEZsXyTj7Sg5TGc3NIahH9y2GreFvuCjF0vP1Z5ZHOjkJWG5reYFO4KGhJQC EwPrDmkNBvZEPWTNF1p2/JmyiDy6y1rEMVntP3EAnpwV+TCTVpNt1An84wwALuRGdZLa9oEcwdu9 wDu4AZZR3yfNC9Dt7i6oKn4GTJZi+pKXUYDMlLt7EXM1AvJzbKjjgdvJcTyiwXIbX+oyZ1OXKBUp LVjKe/2GqyJQ0/4R85Pnb8/1pfJY5vN8Np8HK9cAgDV/xXOHE3hF7RtswIk7QlRZUfObf3DIH3/8 m6DZHOyEILmu6zLrdl2+cNmxvy77ccd/8cYa2QQNzB3hNhmXM9J7jNPiT/m29rucBxfC84jG40i1 7AgGkHjCTAI7vbBzC1udYXGp7t1+sItmLiEOgf8KeazTpRArJg4HApo8uyc2WCvAisN500KwieAe j3ddMDyHi7pT9/T4Pf4wL4ODOQL1/RJQ1oAVgItD/qaRNka4Lh+AjVx2GpKUIti+ZVz8M964bW44 /NXV/mqk1u0Kn1H8OAj3fRS4dy8ghH7jiSCAD7scwl9TBzX1lJuZAktAf1RHjxC/DkLiwXTix2aM IFH7PZeQJMcVv2IhO8WPcktX2CMiF1OKe8NyndwENm5PijlllApCrQOcO0CVZkfbxAJBxEkBTPJP DNa/9W5ZZkwqI2JHZ8ptlEsPTAgptNakk9iSE/DiG8YjvljE5RDRnOzuq17qJyH+wjnvmqWyjCNz CyT/yhHH3VJNRyaP4hf2Yx3crzH2Nap8cvLYm/OaIxz6QbKJy4rfYehtBSllCANaBSgIQB8CN9UO OiEmQD8eDxwDhpEaD7u/3P2lLT5sMrVXoh4L2VFZ9SlXudgl+QoGaOhHEchxbsXSkzH/k3JnbQGB V0YDGrK2/LhOwJBN4or9LsVQrKfcSfiS2BijRLYuJJmNer6+2jw13/jBVw9t9VOZsSzWeSOjQZiM mQgmjWk6eCCzfniek/aeEYb1Ag2KY7ACFadxooKccjq4O1C51mQBOzxEhCWOUNKK3iGJ8QVPtec9 sEoeS2TKLB5uCX6dLSaggBLuGXo0EYOF3bzs9PPA7tuZDkjjeidMYBxyNgr7usEFKzON9/ULOyyl wLDADHDMex3gg1reZPAWQjDhwWFbNisWbKmfYAuAzPd/r2hxgjb1qRrJjloO4NjlGw3hjswWzOdH P6gVuZ6QjYG7/IPHgciv4ACckQ/moHAWRC5MNnuW/2Zq3wSaVrY4FI2F3cbWikfFegny581DdBIF k50Xu/NS7p9tm8b3bYvAfqehZcGGWTmMYVcDofX2j8RgSnk49ygKdYLw3OKh32BvKC7+fhAPy0FB GogIgYX6m0W1jXy3u4PlTTbnD7AHa9Y9L/aCef439//h9nyqwaQcTAO2AU2JuUm8Am9s8TihSBmf iKcI2M6E5uiEvbHVZWxnlvfx103eXX7dkfkz7dFlHvtP959iUg+/73i6Px6Ln4ndBLgX16S1sbGu 1Wh7teYTynqUS9bLPnF+Qd5HN8I3JQ3ZiaceeVpZpPvVh3934Z8DF//j18ImxTaeBiN7WZcGSrEK BZkFLIjAvAH6D50HtkCjxj3aI4EitRPZNzpXYEfHkXVQo+2LQSZWmIfTWSOrZlFM2B74HuoWqAB8 AqAJV36uCnijohuNh7IwBRT7EVrhZy7pYA+yafsNb8Uo2aTDAVDZKxaimbnucWcsgrl+omLBOjsJ b+U5Jab8Bmhjcxg5YIdYz0FxIhzP49ti4dAKiLp5Qy7/enTux+HBRvgbvvORom4zLiYM5MpoDsS1 DtEz5J7ZSCjkMTJmxZyIyGw30GdCMklDHDy+BziDwwMWoFjPPCcql+tzqRl8jTASHV5r2JK40zhH wiC/jY55usOzwfk/TXd+WZOqw4sj0QLfj/ydC82gfcFtw4QPMFdbfHuN3jLCiY0SqsUvFRfA9DP+ ffD8uO0KpTtZwDP6cGikg0PDpjHeJ4z44D4PuqT+nRu3jYyDiM/lwL18+BEmf0/PokKkbFL2IWJ1 sfIs5CtlMqDqAQpT2LRwu5FQTREbxmFH7BiZlVJDomCnCWdTFdlq2h7yiv/AC7u/umElzuAvAy4s GhPQsnUYzRYr1elTPgi5CD1KpWEEiRGCkBKIsa/ZcF9ANRuvTdFZuBkjUPbGxLJBgbcU/EnryhYZ LI1/eKoEpuPcx3ayggaAs5aMZjIEIDEdcAZ9xIY8SUf4BRK615xKGgF74SpaEHD+KYpeMpcsP7MM h0FIPpJ8XVFwWEBB22Jco+PH34rmYm6EQDoJUbj0Ec8cLCGjh7oth+FI0XCptYLneZAyIzBgnXHG oog1vn7kIpTDaVY/8PHp4W5FRGL2KXG5nKJSuHsQC0JoayShrkj9uxce2W+dFC3Fv9Bl70Sredie zmhLWIC7sqdw2w774Zo+rfJ1kQVJxBFKMuHdRHThTxIj8Cdh++OzPvwL7tjyi2hqJ20LaqyAHvFl wEQ8E59x86yazKHgystRJFWOujcl//h1YI0Hy2bcWzzMRtTBr3bDX+dGhk5LM2/xsOsoFTa9gTG8 AFwLHcevk2xEdpWva9wr2M8rmsLi6BCL3WKxhbED4pAxQuw74nxjG0Blbm579HNPKS+Lv7NFkmK3 qFWeECk1jUVfFikafUPR0OipxWaHQ63wLDqnxYLZINhELmV2jDf3k2pgyykRLCqwDP/VnlFoDVGO 52dn7JoxWsXm8IptoCDDhrPgOXNuE2lTFBNZXACT2bJBnDPU38utcyW0W0LjYPtoDI0G4gT2TMdO WU2KOba4wsDeLbY5a/1n2OkEnpfM/QpVf0GqVN8/Oy1nXksw2v7k+vKHF30G8RmCkgIF4JBApOKK rio4AAJ5EBEK/Qrx8s7mONiZHpxl4tnoykI9Ct3kiqv0V1f2A7p5eFJ0ihxlHX51nuatwDSUcSAd wM2lh+2PMupmvVN3OdFvRu7+xdDPDXV8m76vybtTJ4jHj+BVukMGN5BSvgRHCrnYDBCH+2AFYDpW HPry9mAL22bL2qSI2eCZYDZoHeylOzDnlS5WPAGew2L4k0rx3SNsmRye/+ez/6+vO+FpBOJQrhOG 0xljYr8wMc/U8Sn7HA+/HnEKj10+MSSeTOs61ryRnrthmpzMpfD7cbHmy7BluHZeA5IdOF3YSiDh 6dY4CrCOlM2L4KQH+2zNsoWxyj2aHn7kU1xSwCU8bIkGIPc9dRrOdm0Ye8IZsn8QN/OZG0E2HxxJ K+x0hVClht65fHdyHndJedJ3YyZTKnwqFICaeGZvHYqIQ4SZsCqVgeLZsfHztlAtVNffdpwO4Mt5 UXups3+Zw9UgBqxykgsAL9iSjzR/LjpLmvzUnl/RtrxvtK0q7IP0PhJSLNrsIIokxFsnRgknQ2Ph DlM98FDWAMdeNCtYKxdVbBPKtOCqj9PRwXmUHZRYaz1a0MLxqYF7iGHgTyduDcRjCU3Zm9LVIym2 OjAcxdqwbGQiVKALnQTtQKRcaxgt4gCKUpu/fl5O6NHhyIt4aRHxVYE9bdT0Omh2HhAwuByOcce+ dXiAdXGl8MQxmJ/KbWENeGYzkI7wHcpamjdHAt06XjfwslV5QLhdfIVOhfYDQRppwtcU/8JIGNmj M/wigtJvxNYoNQz1nlN6N5WmtHUoYBv1bFGA/wFa0+sRBvL80HOoAiJAuwqomXsHZKAiwYIcZina cYVSf3AnN6L1AB7tusX+pgGRQcUBNWAMJsFmay1D63xHLiL2XwzJHBbwDCHgU+FF08I4dN7OaIVu Gvmcd+RxhtF5mDGbnziZU8MxiJNI2sAkG0a6YmMkDgPKOvNEAjVmF8Ki3BIgMfLQI88gpIVa5Mho 2bmYjscTBuUwCZegdxjh2e4g5g9T9GylmYDWu7UOVu+1Hlir12myDAxCNaXMFbBg/kCryIgZElQL EFP62UpMR8UZ+9R2W/YYOqiMj4VL4DYSovAonZZCPSYoiCnBDkAKQ+xStNeUmSn9OHtRiDwp7e2m QcVp0X2YPWwf/5J1aqnTDdZrokQggxPe3ZQBKk+rMyBWATHPk+HdF8g+E1YKxbNwLywUdlktGcNL gdYP640KKSaeYQtqob0eCtO64g6Yyug6OEiXPw5F+VliKKbyD+DtCJcBowHmEajxSbmC3LBXVwVX 00NYxu7MDuAXHylrxS5qRqhe7gJ52oq3A5NLdq4Hwq9FHcC89fEO7Z2ZaMCjwbd7b8aQtJ3sgHD5 PLqC7pl/SXOjlablihbhIf8oDiiG5UoxijW+UyzWY/0xdoRXw2BX2cUOkpHxUzlENTtGuvyDDEuQ JDjnA64FLo2doN6Uq6hclYkXDjc2agiv6ChAogNSTAJIak6xbXPKiHkWCOPtWZkNYTO1uNlzJls8 KiAnkJ3KTT5sivmLb7Pw4e98G9OorN/3h3gyyIVv3tKgFhYVGXggisqZOG7W8gK2WyedSadA0Wep 4b4tU/ApVdksWFCQt8TPdWHV4V6AEpwBNR0XDMAp+Fb4552wtlmQgRAZZUTm9LKwuZsZcbVnmYPx iJfSXpYNqxHjGCkoHumGDCe0pAOVp3fI1ItIPzrz9sI1JUWwUFvhRoB76Kyb2YxgegBi9oTFsqnY ayJPcG5vCSPxsiGLU1xt+ZSjeeVxlLsFPqxSsAgeeSXdT+pC0Vc3iuIE1QNbQMnLj1U4RIGdFEEZ To391MBl0P9RShHOSrndH/L3+GGnL6ijrSSfhnJgmYHMAsXAnW7RRz022xSQ2V4Rus2uT1m0SICK 9gqWdZUa28PhiIHhlf2jU2elaCmQFTd4gcYqIu8imOhLxcHeAmoHTBs6143OscgBRQ8/UqZV8jl9 C3L9sxjXJ2ViOPlGOGfkWZgyZV5hiukNSxny7BEVoyyBQ42wYVAvTXlHD+0dFljofJQd53h8IRIb jZ0bUCaRPZLZWTiCqh2ci6J6j7LsFa1UjqGc1rBDdRTwW+As73HQB+ainoxyxpspNG1OmdlQBClZ phY6qmbkpDY1RIwp0hkIY+L2fbH7VnF2jjAsAqlzXJA/4GgZPg6Dp2QcHv+gg0IAGJvAL1XTUrjp 147Pl/J2sjsto7ngbsbCHj7e4Fiq7nm1jRTZx81ZEosklVZyROxwK96CptcxQB2nufqnNBPFZMRh utmekqUFF8pGE8Xss6KU4eFFpyvtRKcyi60Mt9cbwtQxhWlHTjWlK7keO86R5PJKHJRvHceMG1Kj zwLxjpl8C0PVISN+qlWmEnlcMUNEJjsXkqscAnj6FGG2c6yOu9IJV0tKvmGG03BzYsLoduUXrw7l GeIGymuQ/NfZ+Vssx9Gz9xkGWrWLGQGhHSr9KC6qsI1TtJ+fq6sJghU+AT6LjlS7MnrCDWnuKcZ7 B1Qtg9O2rOINSBvNq9IYO1QLT3xYcIY1VsFkpgybf6uI5IUzZJ7QVToIhJBiZN4rCoBnxa9CB1Jx CpDE6iNWPcZiMvXzMFO2FlBcFb1J4pi93wwklIhSEJdkMU49ILbjQYE5GZCNtEE1JcEOc23DZOfb MPH7WXF2qNWUwsAuscM4BS46K46ILEv0hq2wZpapqctgeOAC+2UqbwN1Advn6UBnNufQoScuX3RL SUjSLcoRyXhapg7wAZOYe4Tk2ppkaHFfh4voKOhL6n2xoa4FgQzp4JorYVqYt3Ii2OJVPwvfMT7F loNPmaeLzXIK+MhWuhJbErnDsyBZKtsfroIXmd4/2+2otNRSEGlrgRJ+ijAx069lyciTfLLB5MhZ O1FYIOedOgWqoTwWlOuOWTgrAKxV0+cli4q0/X6UDhM/gYtnXKbPJxRmZQqZViXsKO0tYoQvosYr 6KN06aWwmoKj0naR+WIlMWocNsZ6lDKfRsUB61gXWTyxDZQQyITl8WhQcKACc+P7kIzkL/G4yV3l /SR3GfVIn712BTEYzVS1co3bYd16WvzFd+OGk4nXyLjHZ9czYYUdz03ix3U2IAv96k9TnhBbBIhj 06YXVFQwM7LllZ5U/U0zZX+IXAAXQZmH+C1VLiKFQmbzBY8DDhZA6CrPqDIaL7RmssRZVgxGX2CR MKDAZgRvt6WtAUOeP2+EGAjZ+4Xb6jL2K+ajnLJ1Pb+KHtj0cHqeOmprK2NJMCUJl1nYqKBpvGAf hIc7OnYZRNQmL988SOQL0yIEsgxBpbHc/MhzaUXCqbEB9w3FKPs7KKJ1UxPyNf77A+z2mxwPFbej PyGFhnLpXu4yc9gICu5Fz8eoWXU4T6VxjZtsgrG/StxVNIO/z8yFAG2UCX4sQG5OYq0R/9G84JkW yRWXd3K/XLcpZol4lZYSdcDJQqiUpapolO04D9tYMsWpWBu8rHWL3CptgOVXbIufi0KnTzaDlzLc R+VslvjNROEcYOh8VHl4np0BWce9Vqi1vPeTi+sWBxbzSPJo/RadnK3MUGwF14WsZY8D/uwKQDTD bhA4KGDUbNDxWk7gktN5Mm6cGcygKOSN9WgdoockTl1myqorbU2Gj6sHJnFf2NtWBrvxMFxSqe53 aa58FcFhm8T8GUznG6JVX4OJZSnlSoOB50EH3auarKM5ueHcR17Hiiiwb2AXTcYu0rSx5EXWoLIR zfp7Spj3bLf3ihcZsrR165zg7mNHSTQ00PvAobDyGVTrBLDj6hSxGSAwg1JBY08rDShSD+6xp7SS SRGpaFl9PE0pLEeIqmoMMMC9Grp9seOwzxVUhFyQ9ulVEUaHx7vKfb9bonKx7wOyyZXx2MDuLof4 MUd88GTSAYX9IUabXWLZPihPcSblN9jCg5cVUS+6JmBTmMfomnJBcUlgOqC4wI6p7awkzgVORAe9 hGZv1mYlCGFbvj6ICcUUvNKQHnRd3zAnZETtsGJMLQJ80pygVdfB37SkwSjzfXSsLo62lA0KG3wY IXRN5RPCLvYaPDAW5WYrcNSZWOYKRfTKFQpqLz5zfXzTrqoRmaAJ3mG1JjTF2QWuyIMvfk5nMLgi gFfSo1gRnA5vlH0IMMJ4lnhP1SlmT+/A3GHfIeNihtJ0O/5uqTS86fBesYys8Cb+NlvmcBaJQGy+ aUaV/0HZRbHWiirQm0Dy7rlZdwa/to6ybfSlG1pxy5shMZS37RA6XwwKMqO9LycjBoVF4jqvj4FA yYvJJMzHgJFwlxKuj4EnvK4o3m7XKZWpfnAYIob4cGYEXth7DgUeB5FlJwaWS6Kt3vi+ooAfb6yS cxBeufbfnHGLq+sE/eOMVfVbP754Kt1fvhjumxWFt9SrMZ/uQA8WV/TotTpJpFSoysAFk9ej9NgJ uPcjcqWaBLyfokeow/wR+g2vA/PPyPKMelA23+UlKlPyXVHaU59q/KzOXRQ/UsJih2CpWUAA+0Ta JK3x8y6An/HRjoJgKR+ZO2O+CkApBo7RKH9j6QCrZYAAsOjW2WDr+DVkNggaKR4nbveKo+nEGTUx 2c/y0lsJx4xcYcr5KUiTu0YDmBHAKuArdQ0d5imiZcG169Uk06sOcY2vLktkFMRCAtBKSn5JQZGp Ej8RC7gpMgsO7Ut3Qgi5ux4GIxEEct0qtPmkkkpcsAeUrncPPta4OQtlKL5h8dkRglvg5c1+FijZ I6zWBdhd2YdVvFY6lIlRPgXIU48JXKZuxi/Z8xb30T1S7TBAOyp+5Gbr1CKqs4O2YlZTDu5fAE5g 7WElB8K4KT556a+zoz3lQRoH62csPJGXIZ6PhwuMD2Kkv5ppPN4LTxYEeEDzwM+kChaVzHjJQAOT 5kWTsH8lMsupWgaY7CvrPHf2FUK03HLMURGopj/hpJZT8U2zy3i8UgDeucNCr5gA0F7BZReNIMmn b34UH4fshpaFF5L3XL6LXwOl+xAWqHxbVbiCEZHaaAE85jdetnvJ7gxKejiygxMlgfUUazoll8ir TK988rtLgs7fYkt3l3wj77VYKgmf96zOYwxDwU0Jtu5sTsEwOKR4ZcUwhDtsDRQAw7dUoagQTlQE wqhhwWkqYOHFBQ3bV9CxGLOYdS62daqJXgtQ731ZFJarqvuj+mMUyQ7KdYMJ4WNqOMqKWXqEk/C0 Crg38KPs9Mg7bpVKs23/kP0cmg4hjOOtKyxaUnwa5q+MiFtIVxJkD7clYtWUHgPX8cD7q2I8aUvB /i7ycNcJ8r1HCVMAisML6qyrK/bOU+GS8KjKyog6f8TKk5qWPPdBBXehDkW9VIswB1gOLJ+wlxOt QId0Zq5aIbpqueVxDI5WQwtYujc/lmEvonpgsZShUMkjlqfRVsc1mG5Vb53Co3hQI4vPQ+RVfTiU 9FiNc0nwgo5w/5phgDI1Y3AQ96dsh9XryFNnbgo4qjKvGk+fl3W/yrURewXb0dfrk+33VSz1KZV6 HvdLtdRfUrOVjfhzsZSSBj/lUp9iKa2y+3O9VGWbQXUhaaqBY3PmECVuFffICH41tnhKgL9MvKET P1NKmph/YtFzR1Dg7AckDb81HybrLMAcIlqSqr6UpKlCoKQK+5sdxs0c9oJomS/O/U0KfM+Bq/Hq QbELmsjD/9sAtA/o9hQk8nhY2cSKFj4jJxd0luweAA93U1Rfa9lt0KPun4We9yJdcK2Qgko26tOe F1KQto5qoHTSrUp60gGTCk8UdbdkjowVZjwk+NRLVoYq4AlZlcQYXmfNaYnTsxaoPgxiqVES+0zn 1ayaDvuC2uDowFr02Wq6dMKrRCooSegqDzlWAhTQ8kEnQ52PKDj2dAafnuEYYHuUHLlQTku1O0P5 8FHuOSmJEQCZOkTBei0P4lVelkgUPl/aOzXFsIcDv5va/7wZxoQmrUpcZxI8fOqFI0amJOCAHpAc ixsNxNFh+e4KIRXmPj/naEQDbuCbEmUzZBwNhnfLAPms/Is/rDC+agC4jAuhU2uH9zMYJmyeDOXN Io3FFdwnzzEkaUWzlMPEpE07o4Dqfh0RWIS9tP51QrCUoQYg2wnBUO36reW5a+MFLnCapDNgDe0t Sg+uCifA7CH5oCF3LLJqoRaPmEBt9rIq6p6tICh8lVWf3expqPykzHuuwKSswbVwHx6mD9PEKelk IfKD2cqBlMOOD4jKb2rKu4FV3Wqo105WitV8dnwZwIknuYe0856crrcyAfWenEIi3qETIyHEUL5a 69GLpKtnxYOkTkAaXlDbsOnY2tdo5caVPzwpqgnHZu9OVxXZhwKrTngtlQpVQO3WZ1luxtdpRLdW F9WIo7Iz2i3L2cqffdpWZy8LlGcdjEARhmjQ0KEcMk/db7xK7wNGzxRjMQsgwm16xT0Uu983D7go WCeavB9LXMZ6j9KYQrgR0k9GiaVP3A+obdn5UMHQ61emU3U6DwSSvqc6qVJXaR5fqU7gwefRlelk 6UT3GG53cw/Qd3TrdFH0VNnyU509uloSsPA9Ay46JWFrwDUBwkdHAWK7qpzwFqfOitu9w+PEWH6U qP8U3CvN/jzmlwG1qD4eY6AaEeeeDaJaL9Uhj6HuEJYthkeb7bJ/57+lkKga+p6yvZ9TNjV3Q8Yg RV8fLJcEUi7o1Nkom1QhcGXkY3TJIX+gl+9BFAomxTSlJ1U1JfKFe7wVR+IMb0f7KUr12nHhvFai SpVRbvqZcn+sqgA4eqN8pkV4FxOKAfchKl7VZAFiiwYDO3SsP5klSC4z289yyh4dwGt5mL2O1Mst QqCjpOd+OzauUPHNxRelOJBPnR2zv78yJsGTCqsdWMUnZRJ6BRIPS5lknMws3tXkTBBe6khS20Se UzVEV7hG9o2SK8qx8/1gKQJNdQFTm1RTMi0JtgiFzXondEVjAHR4CklMVZWqAITdc7t7YDKPavyX gkAS1nL0ik1tkTzlTjMgWRB7J4kRQ93ZIWsksBatG9sBs6cIn07k/tYQXmibTqISS46/G89QkVRN aN2gmCSsNjyCs6wwnlfpqubVEnv7LSWCAQNzE7Ki6kDGu5SLNKGItSPeQR5libNFWG41QDxWi3Cr MIOS3nRfzEoB76AoEC4FKRL0NF6JfDrKtXFPeWr02mR5X7VlUdRH+ciKGmYdL6Rz85GLqjt3wOsp IRl4LOkmJKPErR8RqOT6ezOp2VdevRCijmGLBdLY68/s2vIsYlKJ8WTcRqZWtdqCrpDWjfS4G+qB QmVVdTYZikk57qJ4r8LMGRGBsS65RvhOLTqsY0gmmhWuZZMc9ww7WWZBQzQaziapOqE9Q+j/JuVy LCWIt9EsN0oZ4kpjsuYdqn+5tRBQk6AKOsXZpGXLQMCpfhTXgCkmbR7lxyp/fAAtGPVcllYCE1HZ h2Yd4eSQqF6BhecrWVFL5xWeQi0xATAXNo6yEpTdltnIUQHxIKh41DGzKM/tgEcApYLZXrRYBc5i UvJ5AdxTiUWCy2TITGkh6cQtAZ89BaVqZ9ik+s0U5fmDihgXWn8r4IOZqT0KfBEes3q/uftPCjiC 2FVW0I39NBWdTVHVPPSDfjtVJSFSARpYi9qtjb5a1kHotH48zNn+S9z0Q3uj0gQGpAJR4KbfOajQ GPm8hpbOGps8CSKQyrOU96FYpcpERt+3qkKHCTf3kD1dM3gQ3c091OEfyvvmHmYloir30OpjLEo5 4rTeUmpuudU14ihIaHuxFvN2ztIsblupWNXHYeqk2PB6j0/VfMtwTiWS6Mz2Ux4IsMknJQ/hw4Kr 21Jrt+eK5U+zh7SGS0XyOHdGLTWOUPQbv62eDlFOA/NS8X7DInmc1ZKrGC9TMy1pELdute1gV1TH nHbw/od1QepqYrtC4FzgJOVnWfkzmvfzaP/GsH8ddX5VF+QVTO1K/YA2bmc5sEVhb0X2MuprLu+V wqpwnVhHUZ7aEMDixnRentVNBzqaoWRbgR0ER3fKsRh2ArXGjEHssB+fudCrzCY2rdQjKH/TX2f+ pL/m+Ml+HQAaoKxIxOfMpfm0LUDwPeXjJsAW61JikQJL+Lg1DrgP9V6oVuOgYsE2AvYDepVdeAZ2 FBsjdDZVhABBPbUo+JetbHyF0Fms/uZ6CzVyVLSYBXJWqaHSrlYOO0Oiaj8e3FJrT+NO3wo1finT sLYzlrciQ3E/0MD/iAW6pCyy73vgswN0MGF7QIk8p1mZBRpHVUsAQvYFqFpBJ13c+gR8AIQdS1IY DYbBzlzoSYnkb+alowEzMDOv57m59u9fdpa1UrHN5feI/2p7DsXytwV6MepHdZhW5OUh7DrMU7Kp V/JmxAGy5l4nrCqC9NlSObOYvg55j1yAHJ9K7hS9DyOzwBgm9LgqVUTNe8TKXkXbYIWfwgnYLM8l XoxjUMASyH6hLkrURXwtFYuo6oKFc8oKeEv4bdmDHs/nz0nJx4J/NmDbNWzwEMVqMZVnymur7Unx qvNAI2uqy4uWKRBP2GFQ6hT/Mz132hU2JQ54wouncrBcVfbgOwL6SsVZCDQRL2twqkqXoJQ/dbAE a7wdGQhBOiR9i43NLp1ynBrqKdqHbm5oHeXnIJUGBB9RP3nORwezrzqC6DgUh6VCMfx5QWy3A8Bh MmqjhsiVKsVrFFGFFzqhXkIW32MeP4mx0xIGuc+3xFgFakHMHj6JsU4XRGfNoQTkqvPK8Fhi7Ap2 Zlk/He/8vFHdT5wbeIJo/1Av6qx+/4d6UeXwf8TeVCcBSbh7+Bj1UEnxh5aAdjYKe39ZE8UmPPoG PFrh8mmQdMFHXGAq4mud0QSs9UJr4MlUmLaqytqyuJw7YCD7zXKna/LmlHGtsq6uSqZtDnHdTB+L 2qvLthjMEeecMKa3wsZcwp8o8lI3j/Iv2idYTbky5FVr1y03UjFDldxl16BrQU0lUR3BUiVFE9WL T3V3XSlDFqeFUlZ1VvLDCtyP1Sp/OiONgMtW1oyIjRIEt4QP/rF2FS8wAUt1feo9skGyFKy/9noA Y1tXJk9HHc2qbaxvTVASALud/QUsLaUWYnIrNSZhq9fwYvkbXtXOeNM7+uAyOikJ0O+j4xvlZ6Nd alVlRlEfQbRtVC2j2m0+KtG7DeOUzjp0UqqE2pFzV7kuQp8tPVLo6nquHm6NrfEMtWV7H6tRsAYs OoG8hQ47q39gLV91Djz6gQc97dY54HqqszDBI22x5n/Sl8n9oRPEv9eXiflqfJoZ1ymEghXKyxtq W5NgAcAyRAHoTuWkhH8LbKYQ1InlRh3MlL71MrhNYJy2tJpS/rbN4m34lHTyaYUHn6JiBY6UkhG/ iopZZUZU560qbm9G/6l93mkifWP9+f6fNmHRGg9ZFwhnhZvK1FCLRc0QlBbf8VqzzHNz7rZaAx6V JAgWwu1BgRCsVoe/bJs7Fk83SH979299HJDz3+vBFZD81sTBqYuD5W9VKwdXqALT3dE6T8AHbaNW pV4IlXQgpdg63ADJHRCdlhOJ/HV7a0W6dE5TDhVmq9qDnzpS/TsNqdxX0ygFWlRqweWhfpiJCiAg A6yQYOJRl4K+ujKqA/uRZ5OmV623zovfT0+Wv3RvrFbDLLxVB5Fu3aDKq4ZDPDWQeGfGuNMEu2CM TrVX4j7ZJkdOUB1i8huf+lPbxl+6NqLU7WCR+b19EN2PjRDfnxo0/NpMScd0aqUETQp4dAiSV17k buqY5aF+6sCldiZqlgCLZNbH7YYUVQCwVKuBQdwDTBw+akn1r9kyJrmrncQzomynrGMrM0WxgK0r vXHr1QBVtFwB7efMquDrka5g6Cr8HEVZgEXlBgoaua4TOb+Uzfeyw+MrW1u6dFUFCbe1LgZF2cia cjhPUYaGGhAo2QwbVay5OKl+0ODcqEJTWbDSprdOyqoOddRLUdGE/d4wIuIdXrRUT6GEk3ZUDXpU C/E3e0vRp26JKUou0hGbGklAuUayPLUGJY9QLTigU8n21HRgYPEZnyz/9GWbRelIIj3MrrIstnKG UYVDTUWR5vx9lRXbYo6g5rgBHdXDgdSbGK96VOac4nh2U/Mt6VM2otqNsDW7/iaDffVkdlwGZn+v vsabtduZx6qvs/8kj/3ao+JHytHFNaoyipVXyxyklNRXRslrjADYGGo1kULu087udDppp/f84FH4 U10V1cbpVYtWZYU5VXL5Rx1WeP6wrI0bskUv26iqwVbPmluW9oVoKrr+AdMuoHWnhiSqQFWDaPTf ugfwSghW5UFd+ALIMxMLrWuKHWE9isCp/VS3thte9AM80sbEln7G0b/e9Sy1sPYxSXmi0M3jJhUg daxTqZ5qsYPvfMs5hUfrRRxBJEkOIIXZTBuraDG+4hoL0TasimWrCgrXnhF0x6kVXGZ1BuRK3aBh GzrqUDNUtUa2pnJtTWvk5fGctiZQ4CLfrTxgpWxhTg4bW5Y4i2+C1AbrF7TVm7qoqwc0q4Pmo6iV G5uvqFe2Kuvx+rCIpkbUGE7MsFqF67yKZIQ5V/JkPxUuw4AnNFiHGagAJWqtDCeuChyI5OEfLV0d 8hydlTYVayXLzdRj3jKaaw+QhKBaJrtzWdKns39qPtR6++ejT/fr2acUrEru1KATdB4aRz8lq3RQ RT2MAiGnxgwT9EG3i+UntQf9XTlB/ftGz59eHOp69a3plfvqeqWiGnNcWwdY69PP656w/9QI8g99 IB0e6/bz+jMb+XP7Sd1XLb95EvctuHsjnT/ntDXl/yugovZOv7Y1tpZo25oat8qmtUKAGw5QVqmi nOs1nvZpTsOjFBN7s/+mpZM6OvGJxw2TCMXaR0jtLgWOIriA36qKHqyhLgXrdp4rWL561qDnrHOc yv5vV2T3c1tka8oBK0NwqgAeWZnUCQQBsq0sx0OIgSqvmZPARII9FhR63bI0VK4LIIPlgJcOu5Qk BTaoYpyZB7LV1XuXpYOKOtOLeCsAZ5hIIR1uqL5/K9C1LOk25q8yTm+rp+5DejeCsvkQBltFdhV2 UHAoqtVV4VgJz7tX9oC/0kNUCJossYQ1Uodvnn3CA6CVOjIvbDcfcRLFI84xZy8FYx30l/KtuZ1T SKlav2SvsrQJAil4j1QNTQePpseYYtztem6B/Bb7U4oHFnU5BXLbCeJxlBP8iBv/KXWu/uqF2ZQr VTYrNC2xVYSsWTzqm1dWIrkpzQ2JuJ7Zkpi3JSuChzdPPM6bYvzlnJX3qjZIuP91t4/XeXIsjKw4 AIwVUZ9uENSmQNlccJCuOKD66KpJV7IuAUkFDcr2GK2breG+4/QQT3z/nl09Lrraks32ySZVdEVN Cx5zY03JYdn6ptfbXgIudBtEagruFQC2W10yLWu7i7NabwqN37N4qB2lj7DdUJZhxg5trV5dM6HK SWQoKzN6ORVZ6RSm8lDqjqkzUZUHbqY03Y6d7D38kkrbVN4Awu23ZnVoYmmyArSV27gbaf1LaYNi YN4ooyWGqlNmedXFlf2Ny8ePqyMq7pDn2VKZDm6O5LI0nqxOLFagpw6Sap6m1wNBHnK9PU0TK6OM IJxzAHyb+ppDxy1O4DDQpdIPFV1GuHq+Uc/aMBDGkHXEss8bjt6Lw77Ry48wzyRepPckSM2rjNHB 1c4Nfu9bdMj0egOG20nrxGrO/HwrcP7WmO/m3vipszgFWRA/N9zMllB3Wp27qoY1q5E2HiOo2TVE cNbJQxzl9EV4saLdCUeSO3w7vC7IFwQ1ur0t09SeoNhmbzqpPrmphHOis/ZQ2/SqRF8lQ4yCtxX5 sQqn5tT37Oiu+BgVYvBM+Hd7qHkjsrcXI3r4U62bdQSstmj2aghmRkEhvAhMsN2m+CVf8YW1aut7 iJleMYF4eiyHXye7XvFOiwvoYGtaJjnrudUjKitxFnKTFPUv6ifGwzF8JWEbvZmWE/Uq6NHF45+q FLOZlYOowxBfuLDL/TG3XFVC93nn2mvt9atBXbaGsOYf1fEHHawzvB1gXKE/eVyqFbrj1ulp01o2 JhZNlcJbyYZD/R+UDje6irKiJDorp8Y5HgqkChPRE5V0LnsBlziqmuxaJdbtyqkJtq6c1pNzqrhs igI0lbqJ/T96Z4gSi9fJ6H5lrTgRrO4RW3MqoUWHkHDP23ZzDsU4QMnCQzRluuWjYijs294wA0FW 0sNQvNGheILeFCXx6WGwf0dOPo3CRE8+5MSIu9ET9xd+8mNTzh/IyZ+6VKsyUTXNzrrHJ2Wdsttn 0+uBsB502FH9iTqsKBBU1PoMtdDk1yAjQy8S6jyUArX5YUYcO3l4ZZS1pdP5o9dcAcaWlKf0yU+D 9ByT9Uf/NCu+PS6/OqSzliDk7cQUQ7YW6fPTIv32yiwYsLVIL+lWrwhm756P+dMf/d5NMf+v26lB ut3w015OzNUaJeT01dA9W7zcRzs9TtgY3HuqR7WgtkbFS4dyy/faHU4MJ2m9KwcBroGHZC8PNSx4 Pu+SWL+0orUtrq7n6qOtF8rE+14OvVDGXssxv1JfinqlWBOub83yFZCQgru98uGVLopj+9ssf6jj hbfSXMD79+ysKRlOZ5hFmhi420pGG/Bs1eU/SqlJ3RdpzoUjLUg3K4S3XiCqa1QV4Dt/F0m57XMc CuG9QlPFOoB/sMZ2Tfxr6E1RYm56JBWnqsJ4SNaU6YGZrUCbnozROI+rCzoHU0ah31PLiZyUHNx6 YYeCmEXt6pTxLXFlOTFPUGt/lUt7dqrem+dubqJSEjFJHOSQlaFH36+3CXCXT3sMvOW8dayqMChW nKo1lBCc7gQFb5My8Iqa5Ce2glVRiO6MwL9Cbu5LJZRFbV5CycjDUo8GODFVaB1csIZqdevFP5CL owRMybKud/LFIkaS9dJFVWlJEyjwCzO/B3XDzhqV7VFdQ24rpAE5FmXRUUUWE5gW1tHpb7RTIpVy TSnjhZLL1cqCulr3ByUW9+yszwjbNRWBlB5ECa0iA1J3CBcVuABC2wqj9m3Y4m9WsRVL6C1pcBWX fXmDCqmaukGpFZvd1Y7D7dUG670vCDE5azvOi0UHTakdsK2tbkJO5bkdNYqJNGU6QBq20NXjCdST Vt0LHzMJ0aCH/bG2zi+s8Z3eP6n4ePUVgwT0Onh5qrrdPPLGKjV7y1K67zDsVeBSkWUz3WKpYU/5 NFDlwYYKcxs+NCgmbI1TmuVxhqqqOcnxqrMze9ULcKgmPPyUxe7fZoagfiMIF+Sw84IB9o8SelrH V/OjeDjIJgYg4ooYkoxHHW/IzcF44QhwMf4oV1PVsJplclWdCaMaS6rzLK58J4n7qqr7EHLSqy8D bnioK1q4oXEVUu5vr+hR5qwhZD0nfr3I6vOGnr/dIG+3zMfT7VBeFSAGIzDrmRpqAhGHEyxsQL1o JqHO1GJBgY7Yb3xC/SsiPmqqO/BQgw31C3sgUlF12RIbanKhApoXA2uz6N1KRUXaXonxCkwllcXq 8MSIxbKGv4oRL2W2eqGMG0qQwsRLVSceqBqMfwgJvPolNcvzSMpUmkB1OlYfPiy7uUFDk45IUT95 Or4Vp048a9EBJE+hV+wovKCsZeZYZqfXlL1JuXlNLzbRiZoK7JeaTwTkq717Fbs7y1aiyW4T7hdi z+KpCFfhFpAHqqJiDhbSiq3kfYtl1AxLw5JEdtkAZEu44vOAbL2751hop60QQECvlqeg02STvcok VnSn4z2V0vEUCHFky6Agd1ASZS/w3so99Yeodw+GYTlu6AV0za0p+9iFju0+dvGxCqV7XOTkk/xi JGy2KXI6u1L4ImJfLbwXpIq59Or43boaHg8Is7cGV6rSUBzy0Yuell7y5b0OyEJHZMGF9VotH6a9 +FHcrnqWKf6uX7ne8FddV1ag+qSpOCKp8KKvCDVVl+hL5Zod32B4uPN0T+GtFQmQeo9wpZluI+6n xPjD217q56Vl470vLVOuwOdVL3pl2f/GC903/IX+9Xo5nV07Lxv/vF4uejUo0jvM7PVyz9E24cfT Vt/h+2o7vYZh7hQ+b7YLbauh9trOXm3XlAuVmmpJWR3VsuvFdo+aun8f4n1nzU1w/AxTJ5Cfh3Tf n/Knh9R5o7X/sI48jV2pN+SxMSG0xaxN7GHDyNh4AGhzGZmkt9q2mKyUQ3lfqNr7lsCs6M+jIMF9 S+AxfG/3LYH6EvSWQPjCqxdLSkbdDXDem82C97C3BUbfv16TthQQkSd684jeyyNZiCl6BT3YbK6i y88yl7yXXqNj/jU/1lMuGQYGda+UKFXFjFZJ3e4nLKcoeHvE4ktxSy5G2+LoZWd7jHuk8W8YQRY8 ZlNufTJHKunS7E31M84PHESdFkBhyLJQTq81PcKBpT4zerej9ShMCosPJl/1nuo3ElSFCmMMJoSU 5Yd8QTjk8GR73c2/ZQQlOnjgqzpUleXVamJS8jIowSOiTyH9FefIL70sEk0MvOXz4+7fmi4PYefv jGqg5We2mZUm8fiidoJOMbIByr4v535uyf3P++y+XuZXE7QCHss8CyoNThY0W2pqCFwqF1YhaPuz 9hKunVVkaO5/5j2n/zMXelWm6f4vmwOu787RDcAAAAGFaUNDUElDQyBwcm9maWxlAAB4nH2RPUjD UBSFT1ulIhWHFhFxyNA6WREVcdQqFKFCqBVadTB56R80aUhSXBwF14KDP4tVBxdnXR1cBUHwB8TR yUnRRUq8Lym0iPHC432cd8/hvfsAf6PCVLNrHFA1y0gnE0I2tyoEX+FDGAMYQ0xipj4niil41tc9 dVPdxXmWd9+f1afkTQb4BOJZphsW8Qbx9Kalc94njrCSpBCfE48adEHiR67LLr9xLjrs55kRI5Oe J44QC8UOljuYlQyVeIo4qqga5fuzLiuctzirlRpr3ZO/MJTXVpa5TmsYSSxiCSIEyKihjAosxGnX SDGRpvOEh3/I8YvkkslVBiPHAqpQITl+8D/4PVuzMDnhJoUSQPeLbX/EgOAu0Kzb9vexbTdPgMAz cKW1/dUGMPNJer2tRY+A/m3g4rqtyXvA5Q4w+KRLhuRIAVr+QgF4P6NvygHhW6B3zZ1b6xynD0CG ZpW6AQ4OgZEiZa97vLunc27/9rTm9wOnZHK85V9WSAAADf1pVFh0WE1MOmNvbS5hZG9iZS54bXAA AAAAADw/eHBhY2tldCBiZWdpbj0i77u/IiBpZD0iVzVNME1wQ2VoaUh6cmVTek5UY3prYzlkIj8+ Cjx4OnhtcG1ldGEgeG1sbnM6eD0iYWRvYmU6bnM6bWV0YS8iIHg6eG1wdGs9IlhNUCBDb3JlIDQu NC4wLUV4aXYyIj4KIDxyZGY6UkRGIHhtbG5zOnJkZj0iaHR0cDovL3d3dy53My5vcmcvMTk5OS8w Mi8yMi1yZGYtc3ludGF4LW5zIyI+CiAgPHJkZjpEZXNjcmlwdGlvbiByZGY6YWJvdXQ9IiIKICAg IHhtbG5zOnhtcE1NPSJodHRwOi8vbnMuYWRvYmUuY29tL3hhcC8xLjAvbW0vIgogICAgeG1sbnM6 c3RFdnQ9Imh0dHA6Ly9ucy5hZG9iZS5jb20veGFwLzEuMC9zVHlwZS9SZXNvdXJjZUV2ZW50IyIK ICAgIHhtbG5zOmRjPSJodHRwOi8vcHVybC5vcmcvZGMvZWxlbWVudHMvMS4xLyIKICAgIHhtbG5z OkdJTVA9Imh0dHA6Ly93d3cuZ2ltcC5vcmcveG1wLyIKICAgIHhtbG5zOnRpZmY9Imh0dHA6Ly9u cy5hZG9iZS5jb20vdGlmZi8xLjAvIgogICAgeG1sbnM6eG1wPSJodHRwOi8vbnMuYWRvYmUuY29t L3hhcC8xLjAvIgogICB4bXBNTTpEb2N1bWVudElEPSJnaW1wOmRvY2lkOmdpbXA6MjRiMDE2ZjMt NDdhMC00NDJmLTllZDItOWFhZmYzYTAzMmRiIgogICB4bXBNTTpJbnN0YW5jZUlEPSJ4bXAuaWlk OjE2MGU0M2M5LTRiMzItNGU2Yy1hNjhlLTZkNTRiMTgzZDlhZSIKICAgeG1wTU06T3JpZ2luYWxE b2N1bWVudElEPSJ4bXAuZGlkOmNmYjg0NzI1LTMzMmYtNDMwNS1hMzI2LWJhZWY5ZDVlOGVhOCIK ICAgZGM6Rm9ybWF0PSJpbWFnZS9wbmciCiAgIEdJTVA6QVBJPSIyLjAiCiAgIEdJTVA6UGxhdGZv cm09IkxpbnV4IgogICBHSU1QOlRpbWVTdGFtcD0iMTY0MjYzMjQyMjc3NTI3NSIKICAgR0lNUDpW ZXJzaW9uPSIyLjEwLjMwIgogICB0aWZmOk9yaWVudGF0aW9uPSIxIgogICB4bXA6Q3JlYXRvclRv b2w9IkdJTVAgMi4xMCI+CiAgIDx4bXBNTTpIaXN0b3J5PgogICAgPHJkZjpTZXE+CiAgICAgPHJk ZjpsaQogICAgICBzdEV2dDphY3Rpb249InNhdmVkIgogICAgICBzdEV2dDpjaGFuZ2VkPSIvIgog ICAgICBzdEV2dDppbnN0YW5jZUlEPSJ4bXAuaWlkOmVmZDhiMmMzLWZmMWYtNDg3OC1hZDQ5LTVh YzllYjExM2MyMSIKICAgICAgc3RFdnQ6c29mdHdhcmVBZ2VudD0iR2ltcCAyLjEwIChMaW51eCki CiAgICAgIHN0RXZ0OndoZW49IjIwMjItMDEtMTlUMjM6NDU6NTcrMDE6MDAiLz4KICAgICA8cmRm OmxpCiAgICAgIHN0RXZ0OmFjdGlvbj0ic2F2ZWQiCiAgICAgIHN0RXZ0OmNoYW5nZWQ9Ii8iCiAg ICAgIHN0RXZ0Omluc3RhbmNlSUQ9InhtcC5paWQ6MmMwMDY3MTAtMzM5NC00NDQ0LTlkYWMtZjk5 MDMwOTY4NDNmIgogICAgICBzdEV2dDpzb2Z0d2FyZUFnZW50PSJHaW1wIDIuMTAgKExpbnV4KSIK ICAgICAgc3RFdnQ6d2hlbj0iMjAyMi0wMS0xOVQyMzo0NzowMiswMTowMCIvPgogICAgPC9yZGY6 U2VxPgogICA8L3htcE1NOkhpc3Rvcnk+CiAgPC9yZGY6RGVzY3JpcHRpb24+CiA8L3JkZjpSREY+ CjwveDp4bXBtZXRhPgogICAgICAgICAgICAgICAgICAgICAgICAgICAgICAgICAgICAgICAgICAg ICAgICAgICAgICAgICAgICAgICAgICAgICAgICAgICAgICAgICAgICAgICAgICAgICAgICAgICAg CiAgICAgICAgICAgICAgICAgICAgICAgICAgICAgICAgICAgICAgICAgICAgICAgICAgICAgICAg ICAgICAgICAgICAgICAgICAgICAgICAgICAgICAgICAgICAgICAgICAgICAKICAgICAgICAgICAg ICAgICAgICAgICAgICAgICAgICAgICAgICAgICAgICAgICAgICAgICAgICAgICAgICAgICAgICAg ICAgICAgICAgICAgICAgICAgICAgICAgICAgICAgIAogICAgICAgICAgICAgICAgICAgICAgICAg ICAgICAgICAgICAgICAgICAgICAgICAgICAgICAgICAgICAgICAgICAgICAgICAgICAgICAgICAg ICAgICAgICAgICAgICAgICAgCiAgICAgICAgICAgICAgICAgICAgICAgICAgICAgICAgICAgICAg ICAgICAgICAgICAgICAgICAgICAgICAgICAgICAgICAgICAgICAgICAgICAgICAgICAgICAgICAg ICAgICAKICAgICAgICAgICAgICAgICAgICAgICAgICAgICAgICAgICAgICAgICAgICAgICAgICAg ICAgICAgICAgICAgICAgICAgICAgICAgICAgICAgICAgICAgICAgICAgICAgICAgIAogICAgICAg ICAgICAgICAgICAgICAgICAgICAgICAgICAgICAgICAgICAgICAgICAgICAgICAgICAgICAgICAg ICAgICAgICAgICAgICAgICAgICAgICAgICAgICAgICAgICAgCiAgICAgICAgICAgICAgICAgICAg ICAgICAgICAgICAgICAgICAgICAgICAgICAgICAgICAgICAgICAgICAgICAgICAgICAgICAgICAg ICAgICAgICAgICAgICAgICAgICAgICAKICAgICAgICAgICAgICAgICAgICAgICAgICAgICAgICAg ICAgICAgICAgICAgICAgICAgICAgICAgICAgICAgICAgICAgICAgICAgICAgICAgICAgICAgICAg ICAgICAgICAgIAogICAgICAgICAgICAgICAgICAgICAgICAgICAgICAgICAgICAgICAgICAgICAg ICAgICAgICAgICAgICAgICAgICAgICAgICAgICAgICAgICAgICAgICAgICAgICAgICAgICAgCiAg ICAgICAgICAgICAgICAgICAgICAgICAgICAgICAgICAgICAgICAgICAgICAgICAgICAgICAgICAg ICAgICAgICAgICAgICAgICAgICAgICAgICAgICAgICAgICAgICAgICAKICAgICAgICAgICAgICAg ICAgICAgICAgICAgICAgICAgICAgICAgICAgICAgICAgICAgICAgICAgICAgICAgICAgICAgICAg ICAgICAgICAgICAgICAgICAgICAgICAgICAgIAogICAgICAgICAgICAgICAgICAgICAgICAgICAg ICAgICAgICAgICAgICAgICAgICAgICAgICAgICAgICAgICAgICAgICAgICAgICAgICAgICAgICAg ICAgICAgICAgICAgICAgCiAgICAgICAgICAgICAgICAgICAgICAgICAgICAgICAgICAgICAgICAg ICAgICAgICAgICAgICAgICAgICAgICAgICAgICAgICAgICAgICAgICAgICAgICAgICAgICAgICAg ICAKICAgICAgICAgICAgICAgICAgICAgICAgICAgICAgICAgICAgICAgICAgICAgICAgICAgICAg ICAgICAgICAgICAgICAgICAgICAgICAgICAgICAgICAgICAgICAgICAgICAgIAogICAgICAgICAg ICAgICAgICAgICAgICAgICAgICAgICAgICAgICAgICAgICAgICAgICAgICAgICAgICAgICAgICAg ICAgICAgICAgICAgICAgICAgICAgICAgICAgICAgICAgCiAgICAgICAgICAgICAgICAgICAgICAg ICAgICAgICAgICAgICAgICAgICAgICAgICAgICAgICAgICAgICAgICAgICAgICAgICAgICAgICAg ICAgICAgICAgICAgICAgICAgICAKICAgICAgICAgICAgICAgICAgICAgICAgICAgICAgICAgICAg ICAgICAgICAgICAgICAgICAgICAgICAgICAgICAgICAgICAgICAgICAgICAgICAgICAgICAgICAg ICAgICAgIAogICAgICAgICAgICAgICAgICAgICAgICAgICAgICAgICAgICAgICAgICAgICAgICAg ICAgICAgICAgICAgICAgICAgICAgICAgICAgICAgICAgICAgICAgICAgICAgICAgICAgCiAgICAg ICAgICAgICAgICAgICAgICAgICAgICAgICAgICAgICAgICAgICAgICAgICAgICAgICAgICAgICAg ICAgICAgICAgICAgICAgICAgICAgICAgICAgICAgICAgICAgICAKICAgICAgICAgICAgICAgICAg ICAgICAgICAgCjw/eHBhY2tldCBlbmQ9InciPz6zK1MTAAAABlBMVEUAAAD///+l2Z/dAAAAAWJL R0QAiAUdSAAAAAlwSFlzAAALEgAACxIB0t1+/AAAAAd0SU1FB+YBExYvApe8BX0AAAFQSURBVHja 7dpRDoMgEEVRdjD73yU7oFVhZkBtlTFpP+5L09Tq6RcBeTYlQgghhBDyBymavB6+32U52p+CQCZJ tg92VspwCgKJkO3K7VUj7Zt2CgJ5hOhorFMfBPI0qR/akgqBPEXM6mX9lRBIiLi9wPi6sLOAQL6S /TSoQ/RS9QGBfCPLNVLLjbpB0OqjrbYQSIR4tbxrn3a+vEIg98jabGi/ocSUFAgkRJKb3KTeso0t boJAQsQvr5XoIrtNhhkCCRApw/JqY7IUmxIhkFni+w37BbdfgECCRIei7j3t0D2TgkCmiX/S1A3F 884WArlFjh9FuVbtsCGBQK6T7vGT9rTSj1UIJEJ8N+s2BfZ0oEAgUeL/cmZjsuXgFg4CmSU23fkW NycI5Ckytrhy3pBAIHdIV264mzrlp7sJCOQK+bBN0P42QyDzhBBCCCGE/CgvEDiLIa8oU00AAAAA SUVORK5CYII= "
       id="image957"
       x="1177.7355"
       y="404.03293" />
    <text
       xml:space="preserve"
       style="font-size:96px;line-height:1.25;font-family:'Open Sans';-inkscape-font-specification:'Open Sans';letter-spacing:0px;word-spacing:0px;fill:#ffffff;fill-opacity:1"
       x="1199.004"
       y="386.68661"
       id="text2522"><tspan
         sodipodi:role="line"
         id="tspan2520"
         x="1199.004"
         y="386.68661">more info:</tspan></text>
  </g>
</svg>
